{"failedCount":1,"prefixedPath":"src\/test\/tests\/get.feature","packageQualifiedName":"src.test.tests.get","loopIndex":-1,"relativePath":"src\/test\/tests\/get.feature","scenarioResults":[{"sectionIndex":0,"stepResults":[{"result":{"nanos":40917373,"millis":40.917373,"status":"passed"},"step":{"background":true,"line":3,"prefix":"*","index":0,"text":"url \"https:\/\/reqres.in\/api\""}},{"result":{"nanos":2035608,"millis":2.035608,"status":"passed"},"step":{"background":true,"line":4,"prefix":"*","index":1,"text":"header Accept = 'application\/json'"}},{"result":{"nanos":724196,"millis":0.724196,"status":"passed"},"step":{"line":8,"prefix":"Given","index":0,"text":"url  \"https:\/\/reqres.in\/api\/users?page=2\""}},{"result":{"nanos":343782847,"millis":343.782847,"status":"passed"},"step":{"line":9,"prefix":"When","index":1,"text":"method get"},"stepLog":"15:55:24.938 request:\n1 > GET https:\/\/reqres.in\/api\/users?page=2\n1 > Accept: application\/json\n1 > Host: reqres.in\n1 > Connection: Keep-Alive\n1 > User-Agent: Apache-HttpClient\/4.5.13 (Java\/19.0.2)\n1 > Accept-Encoding: gzip,deflate\n\n\n15:55:25.129 response time in milliseconds: 189\n1 < 200\n1 < Date: Mon, 27 Feb 2023 10:55:25 GMT\n1 < Content-Type: application\/json; charset=utf-8\n1 < Transfer-Encoding: chunked\n1 < Connection: keep-alive\n1 < X-Powered-By: Express\n1 < Access-Control-Allow-Origin: *\n1 < Etag: W\/\"406-ut0vzoCuidvyMf8arZpMpJ6ZRDw\"\n1 < Via: 1.1 vegur\n1 < Cache-Control: max-age=14400\n1 < CF-Cache-Status: HIT\n1 < Age: 1151\n1 < Report-To: {\"endpoints\":[{\"url\":\"https:\\\/\\\/a.nel.cloudflare.com\\\/report\\\/v3?s=xxaZv7uaGBesHjLIwXfkZhLoQe8rZyR1FVQ%2F4V4Rq0YmSKMbqM2jgL2QkeP2MFL7eQ3JYF96QkO7bMxLaqOfnPXKkpudM%2BHuF6qMYYxEr2u8zgf6k9OroqEU6g%3D%3D\"}],\"group\":\"cf-nel\",\"max_age\":604800}\n1 < NEL: {\"success_fraction\":0,\"report_to\":\"cf-nel\",\"max_age\":604800}\n1 < Vary: Accept-Encoding\n1 < Server: cloudflare\n1 < CF-RAY: 7a0063576d2cd04d-KHI\n{\"page\":2,\"per_page\":6,\"total\":12,\"total_pages\":2,\"data\":[{\"id\":7,\"email\":\"michael.lawson@reqres.in\",\"first_name\":\"Michael\",\"last_name\":\"Lawson\",\"avatar\":\"https:\/\/reqres.in\/img\/faces\/7-image.jpg\"},{\"id\":8,\"email\":\"lindsay.ferguson@reqres.in\",\"first_name\":\"Lindsay\",\"last_name\":\"Ferguson\",\"avatar\":\"https:\/\/reqres.in\/img\/faces\/8-image.jpg\"},{\"id\":9,\"email\":\"tobias.funke@reqres.in\",\"first_name\":\"Tobias\",\"last_name\":\"Funke\",\"avatar\":\"https:\/\/reqres.in\/img\/faces\/9-image.jpg\"},{\"id\":10,\"email\":\"byron.fields@reqres.in\",\"first_name\":\"Byron\",\"last_name\":\"Fields\",\"avatar\":\"https:\/\/reqres.in\/img\/faces\/10-image.jpg\"},{\"id\":11,\"email\":\"george.edwards@reqres.in\",\"first_name\":\"George\",\"last_name\":\"Edwards\",\"avatar\":\"https:\/\/reqres.in\/img\/faces\/11-image.jpg\"},{\"id\":12,\"email\":\"rachel.howell@reqres.in\",\"first_name\":\"Rachel\",\"last_name\":\"Howell\",\"avatar\":\"https:\/\/reqres.in\/img\/faces\/12-image.jpg\"}],\"support\":{\"url\":\"https:\/\/reqres.in\/#support-heading\",\"text\":\"To keep ReqRes free, contributions towards server costs are appreciated!\"}}\n\n"},{"result":{"nanos":3205655,"millis":3.205655,"status":"passed"},"step":{"line":10,"prefix":"Then","index":2,"text":"status 200"}},{"result":{"nanos":58756990,"millis":58.75699,"status":"passed"},"step":{"line":11,"prefix":"And","index":3,"text":"print response"},"stepLog":"15:55:25.209 [print] {\n  \"page\": 2,\n  \"per_page\": 6,\n  \"total\": 12,\n  \"total_pages\": 2,\n  \"data\": [\n    {\n      \"id\": 7,\n      \"email\": \"michael.lawson@reqres.in\",\n      \"first_name\": \"Michael\",\n      \"last_name\": \"Lawson\",\n      \"avatar\": \"https:\/\/reqres.in\/img\/faces\/7-image.jpg\"\n    },\n    {\n      \"id\": 8,\n      \"email\": \"lindsay.ferguson@reqres.in\",\n      \"first_name\": \"Lindsay\",\n      \"last_name\": \"Ferguson\",\n      \"avatar\": \"https:\/\/reqres.in\/img\/faces\/8-image.jpg\"\n    },\n    {\n      \"id\": 9,\n      \"email\": \"tobias.funke@reqres.in\",\n      \"first_name\": \"Tobias\",\n      \"last_name\": \"Funke\",\n      \"avatar\": \"https:\/\/reqres.in\/img\/faces\/9-image.jpg\"\n    },\n    {\n      \"id\": 10,\n      \"email\": \"byron.fields@reqres.in\",\n      \"first_name\": \"Byron\",\n      \"last_name\": \"Fields\",\n      \"avatar\": \"https:\/\/reqres.in\/img\/faces\/10-image.jpg\"\n    },\n    {\n      \"id\": 11,\n      \"email\": \"george.edwards@reqres.in\",\n      \"first_name\": \"George\",\n      \"last_name\": \"Edwards\",\n      \"avatar\": \"https:\/\/reqres.in\/img\/faces\/11-image.jpg\"\n    },\n    {\n      \"id\": 12,\n      \"email\": \"rachel.howell@reqres.in\",\n      \"first_name\": \"Rachel\",\n      \"last_name\": \"Howell\",\n      \"avatar\": \"https:\/\/reqres.in\/img\/faces\/12-image.jpg\"\n    }\n  ],\n  \"support\": {\n    \"url\": \"https:\/\/reqres.in\/#support-heading\",\n    \"text\": \"To keep ReqRes free, contributions towards server costs are appreciated!\"\n  }\n}\n \n"},{"result":{"nanos":2597106,"millis":2.597106,"status":"passed"},"step":{"line":12,"prefix":"And","index":4,"text":"print responseStatus"},"stepLog":"15:55:25.213 [print] 200 \n"},{"result":{"nanos":1016865,"millis":1.016865,"status":"passed"},"step":{"line":13,"prefix":"And","index":5,"text":"print responseTime"},"stepLog":"15:55:25.214 [print] 189 \n"},{"result":{"nanos":1037593,"millis":1.037593,"status":"passed"},"step":{"line":14,"prefix":"And","index":6,"text":"print responseHeaders"},"stepLog":"15:55:25.216 [print] {\n  \"Date\": [\n    \"Mon, 27 Feb 2023 10:55:25 GMT\"\n  ],\n  \"Content-Type\": [\n    \"application\/json; charset=utf-8\"\n  ],\n  \"Transfer-Encoding\": [\n    \"chunked\"\n  ],\n  \"Connection\": [\n    \"keep-alive\"\n  ],\n  \"X-Powered-By\": [\n    \"Express\"\n  ],\n  \"Access-Control-Allow-Origin\": [\n    \"*\"\n  ],\n  \"Etag\": [\n    \"W\/\\\"406-ut0vzoCuidvyMf8arZpMpJ6ZRDw\\\"\"\n  ],\n  \"Via\": [\n    \"1.1 vegur\"\n  ],\n  \"Cache-Control\": [\n    \"max-age=14400\"\n  ],\n  \"CF-Cache-Status\": [\n    \"HIT\"\n  ],\n  \"Age\": [\n    \"1151\"\n  ],\n  \"Report-To\": [\n    \"{\\\"endpoints\\\":[{\\\"url\\\":\\\"https:\\\\\/\\\\\/a.nel.cloudflare.com\\\\\/report\\\\\/v3?s=xxaZv7uaGBesHjLIwXfkZhLoQe8rZyR1FVQ%2F4V4Rq0YmSKMbqM2jgL2QkeP2MFL7eQ3JYF96QkO7bMxLaqOfnPXKkpudM%2BHuF6qMYYxEr2u8zgf6k9OroqEU6g%3D%3D\\\"}],\\\"group\\\":\\\"cf-nel\\\",\\\"max_age\\\":604800}\"\n  ],\n  \"NEL\": [\n    \"{\\\"success_fraction\\\":0,\\\"report_to\\\":\\\"cf-nel\\\",\\\"max_age\\\":604800}\"\n  ],\n  \"Vary\": [\n    \"Accept-Encoding\"\n  ],\n  \"Server\": [\n    \"cloudflare\"\n  ],\n  \"CF-RAY\": [\n    \"7a0063576d2cd04d-KHI\"\n  ],\n  \"Set-Cookie\": [\n  ]\n}\n \n"},{"result":{"nanos":689157,"millis":0.689157,"status":"passed"},"step":{"line":15,"prefix":"And","index":7,"text":"print responseCookies"},"stepLog":"15:55:25.216 [print] {\n}\n \n"}],"executorName":"main","line":7,"name":"Get Demo 1","description":"","durationMillis":454.76339,"startTime":1677495324748,"failed":false,"refId":"[1:7]","endTime":1677495325216,"exampleIndex":-1},{"sectionIndex":1,"stepResults":[{"result":{"nanos":301778,"millis":0.301778,"status":"passed"},"step":{"background":true,"line":3,"prefix":"*","index":0,"text":"url \"https:\/\/reqres.in\/api\""}},{"result":{"nanos":156256,"millis":0.156256,"status":"passed"},"step":{"background":true,"line":4,"prefix":"*","index":1,"text":"header Accept = 'application\/json'"}},{"result":{"nanos":520118,"millis":0.520118,"status":"passed"},"step":{"line":19,"prefix":"Given","index":0,"text":"path  \"\/users?page=2\""}},{"result":{"nanos":73326638,"millis":73.326638,"status":"passed"},"step":{"line":20,"prefix":"When","index":1,"text":"method get"},"stepLog":"15:55:25.225 request:\n1 > GET https:\/\/reqres.in\/api\/users%3Fpage=2\n1 > Accept: application\/json\n1 > Host: reqres.in\n1 > Connection: Keep-Alive\n1 > User-Agent: Apache-HttpClient\/4.5.13 (Java\/19.0.2)\n1 > Accept-Encoding: gzip,deflate\n\n\n15:55:25.297 response time in milliseconds: 72\n1 < 200\n1 < Date: Mon, 27 Feb 2023 10:55:25 GMT\n1 < Content-Type: application\/json; charset=utf-8\n1 < Transfer-Encoding: chunked\n1 < Connection: keep-alive\n1 < X-Powered-By: Express\n1 < Access-Control-Allow-Origin: *\n1 < Etag: W\/\"2c1-N6Rqerxquq2kgQhL51EiSg4x0R8\"\n1 < Via: 1.1 vegur\n1 < Cache-Control: max-age=14400\n1 < CF-Cache-Status: HIT\n1 < Age: 77\n1 < Report-To: {\"endpoints\":[{\"url\":\"https:\\\/\\\/a.nel.cloudflare.com\\\/report\\\/v3?s=piYCCGRj8qJlf8LijhSr3EtiKBdyD3MYkFgqanYdRZ1JtGkrHPnGTVLJ2y0n%2BUPooA0N7LKQL4DBmw%2BLIoNRju2vpronbu114OaC1wC%2Bm7TKsTfZ94N28sU4qQ%3D%3D\"}],\"group\":\"cf-nel\",\"max_age\":604800}\n1 < NEL: {\"success_fraction\":0,\"report_to\":\"cf-nel\",\"max_age\":604800}\n1 < Vary: Accept-Encoding\n1 < Server: cloudflare\n1 < CF-RAY: 7a0063588a87d059-KHI\n{\"page\":1,\"per_page\":6,\"total\":12,\"total_pages\":2,\"data\":[{\"id\":1,\"name\":\"cerulean\",\"year\":2000,\"color\":\"#98B2D1\",\"pantone_value\":\"15-4020\"},{\"id\":2,\"name\":\"fuchsia rose\",\"year\":2001,\"color\":\"#C74375\",\"pantone_value\":\"17-2031\"},{\"id\":3,\"name\":\"true red\",\"year\":2002,\"color\":\"#BF1932\",\"pantone_value\":\"19-1664\"},{\"id\":4,\"name\":\"aqua sky\",\"year\":2003,\"color\":\"#7BC4C4\",\"pantone_value\":\"14-4811\"},{\"id\":5,\"name\":\"tigerlily\",\"year\":2004,\"color\":\"#E2583E\",\"pantone_value\":\"17-1456\"},{\"id\":6,\"name\":\"blue turquoise\",\"year\":2005,\"color\":\"#53B0AE\",\"pantone_value\":\"15-5217\"}],\"support\":{\"url\":\"https:\/\/reqres.in\/#support-heading\",\"text\":\"To keep ReqRes free, contributions towards server costs are appreciated!\"}}\n\n"},{"result":{"nanos":13304,"millis":0.013304,"status":"passed"},"step":{"line":21,"prefix":"Then","index":2,"text":"status 200"}},{"result":{"nanos":582763,"millis":0.582763,"status":"passed"},"step":{"line":22,"prefix":"And","index":3,"text":"print response"},"stepLog":"15:55:25.298 [print] {\n  \"page\": 1,\n  \"per_page\": 6,\n  \"total\": 12,\n  \"total_pages\": 2,\n  \"data\": [\n    {\n      \"id\": 1,\n      \"name\": \"cerulean\",\n      \"year\": 2000,\n      \"color\": \"#98B2D1\",\n      \"pantone_value\": \"15-4020\"\n    },\n    {\n      \"id\": 2,\n      \"name\": \"fuchsia rose\",\n      \"year\": 2001,\n      \"color\": \"#C74375\",\n      \"pantone_value\": \"17-2031\"\n    },\n    {\n      \"id\": 3,\n      \"name\": \"true red\",\n      \"year\": 2002,\n      \"color\": \"#BF1932\",\n      \"pantone_value\": \"19-1664\"\n    },\n    {\n      \"id\": 4,\n      \"name\": \"aqua sky\",\n      \"year\": 2003,\n      \"color\": \"#7BC4C4\",\n      \"pantone_value\": \"14-4811\"\n    },\n    {\n      \"id\": 5,\n      \"name\": \"tigerlily\",\n      \"year\": 2004,\n      \"color\": \"#E2583E\",\n      \"pantone_value\": \"17-1456\"\n    },\n    {\n      \"id\": 6,\n      \"name\": \"blue turquoise\",\n      \"year\": 2005,\n      \"color\": \"#53B0AE\",\n      \"pantone_value\": \"15-5217\"\n    }\n  ],\n  \"support\": {\n    \"url\": \"https:\/\/reqres.in\/#support-heading\",\n    \"text\": \"To keep ReqRes free, contributions towards server costs are appreciated!\"\n  }\n}\n \n"}],"executorName":"main","line":18,"name":"Get Demo 2","description":"","durationMillis":74.900857,"startTime":1677495325222,"failed":false,"refId":"[2:18]","endTime":1677495325298,"exampleIndex":-1},{"sectionIndex":2,"stepResults":[{"result":{"nanos":208754,"millis":0.208754,"status":"passed"},"step":{"background":true,"line":3,"prefix":"*","index":0,"text":"url \"https:\/\/reqres.in\/api\""}},{"result":{"nanos":136384,"millis":0.136384,"status":"passed"},"step":{"background":true,"line":4,"prefix":"*","index":1,"text":"header Accept = 'application\/json'"}},{"result":{"nanos":351717,"millis":0.351717,"status":"passed"},"step":{"line":26,"prefix":"Given","index":0,"text":"path  \"\/users\""}},{"result":{"nanos":3088476,"millis":3.088476,"status":"passed"},"step":{"line":27,"prefix":"And","index":1,"text":"params page = 2"},"stepLog":"15:55:25.308 did not evaluate to map page = 2: [type: NUMBER, value: 2]\n"},{"result":{"nanos":64595157,"millis":64.595157,"status":"passed"},"step":{"line":28,"prefix":"When","index":2,"text":"method get"},"stepLog":"15:55:25.309 request:\n1 > GET https:\/\/reqres.in\/api\/users\n1 > Accept: application\/json\n1 > Host: reqres.in\n1 > Connection: Keep-Alive\n1 > User-Agent: Apache-HttpClient\/4.5.13 (Java\/19.0.2)\n1 > Accept-Encoding: gzip,deflate\n\n\n15:55:25.371 response time in milliseconds: 62\n1 < 200\n1 < Date: Mon, 27 Feb 2023 10:55:25 GMT\n1 < Content-Type: application\/json; charset=utf-8\n1 < Transfer-Encoding: chunked\n1 < Connection: keep-alive\n1 < X-Powered-By: Express\n1 < Access-Control-Allow-Origin: *\n1 < Etag: W\/\"3e4-2RLXvr5wTg9YQ6aH95CkYoFNuO8\"\n1 < Via: 1.1 vegur\n1 < Cache-Control: max-age=14400\n1 < CF-Cache-Status: HIT\n1 < Age: 1706\n1 < Report-To: {\"endpoints\":[{\"url\":\"https:\\\/\\\/a.nel.cloudflare.com\\\/report\\\/v3?s=8RkiTyJn%2FHAHe8SLNNxtcbmo37zm7l9MR3kvmpQ9SlPtLfrTgZ3mi3vtpKFfYaG7zpalzsMxsmqUl0dra%2F6CVTNzRHdGble%2BHPI6e3%2FVoJelpRBXBQP8JtF7tw%3D%3D\"}],\"group\":\"cf-nel\",\"max_age\":604800}\n1 < NEL: {\"success_fraction\":0,\"report_to\":\"cf-nel\",\"max_age\":604800}\n1 < Vary: Accept-Encoding\n1 < Server: cloudflare\n1 < CF-RAY: 7a006358ff2ec914-KHI\n{\"page\":1,\"per_page\":6,\"total\":12,\"total_pages\":2,\"data\":[{\"id\":1,\"email\":\"george.bluth@reqres.in\",\"first_name\":\"George\",\"last_name\":\"Bluth\",\"avatar\":\"https:\/\/reqres.in\/img\/faces\/1-image.jpg\"},{\"id\":2,\"email\":\"janet.weaver@reqres.in\",\"first_name\":\"Janet\",\"last_name\":\"Weaver\",\"avatar\":\"https:\/\/reqres.in\/img\/faces\/2-image.jpg\"},{\"id\":3,\"email\":\"emma.wong@reqres.in\",\"first_name\":\"Emma\",\"last_name\":\"Wong\",\"avatar\":\"https:\/\/reqres.in\/img\/faces\/3-image.jpg\"},{\"id\":4,\"email\":\"eve.holt@reqres.in\",\"first_name\":\"Eve\",\"last_name\":\"Holt\",\"avatar\":\"https:\/\/reqres.in\/img\/faces\/4-image.jpg\"},{\"id\":5,\"email\":\"charles.morris@reqres.in\",\"first_name\":\"Charles\",\"last_name\":\"Morris\",\"avatar\":\"https:\/\/reqres.in\/img\/faces\/5-image.jpg\"},{\"id\":6,\"email\":\"tracey.ramos@reqres.in\",\"first_name\":\"Tracey\",\"last_name\":\"Ramos\",\"avatar\":\"https:\/\/reqres.in\/img\/faces\/6-image.jpg\"}],\"support\":{\"url\":\"https:\/\/reqres.in\/#support-heading\",\"text\":\"To keep ReqRes free, contributions towards server costs are appreciated!\"}}\n\n"},{"result":{"nanos":14562,"millis":0.014562,"status":"passed"},"step":{"line":29,"prefix":"Then","index":3,"text":"status 200"}},{"result":{"nanos":860067,"millis":0.860067,"status":"passed"},"step":{"line":30,"prefix":"And","index":4,"text":"print response"},"stepLog":"15:55:25.373 [print] {\n  \"page\": 1,\n  \"per_page\": 6,\n  \"total\": 12,\n  \"total_pages\": 2,\n  \"data\": [\n    {\n      \"id\": 1,\n      \"email\": \"george.bluth@reqres.in\",\n      \"first_name\": \"George\",\n      \"last_name\": \"Bluth\",\n      \"avatar\": \"https:\/\/reqres.in\/img\/faces\/1-image.jpg\"\n    },\n    {\n      \"id\": 2,\n      \"email\": \"janet.weaver@reqres.in\",\n      \"first_name\": \"Janet\",\n      \"last_name\": \"Weaver\",\n      \"avatar\": \"https:\/\/reqres.in\/img\/faces\/2-image.jpg\"\n    },\n    {\n      \"id\": 3,\n      \"email\": \"emma.wong@reqres.in\",\n      \"first_name\": \"Emma\",\n      \"last_name\": \"Wong\",\n      \"avatar\": \"https:\/\/reqres.in\/img\/faces\/3-image.jpg\"\n    },\n    {\n      \"id\": 4,\n      \"email\": \"eve.holt@reqres.in\",\n      \"first_name\": \"Eve\",\n      \"last_name\": \"Holt\",\n      \"avatar\": \"https:\/\/reqres.in\/img\/faces\/4-image.jpg\"\n    },\n    {\n      \"id\": 5,\n      \"email\": \"charles.morris@reqres.in\",\n      \"first_name\": \"Charles\",\n      \"last_name\": \"Morris\",\n      \"avatar\": \"https:\/\/reqres.in\/img\/faces\/5-image.jpg\"\n    },\n    {\n      \"id\": 6,\n      \"email\": \"tracey.ramos@reqres.in\",\n      \"first_name\": \"Tracey\",\n      \"last_name\": \"Ramos\",\n      \"avatar\": \"https:\/\/reqres.in\/img\/faces\/6-image.jpg\"\n    }\n  ],\n  \"support\": {\n    \"url\": \"https:\/\/reqres.in\/#support-heading\",\n    \"text\": \"To keep ReqRes free, contributions towards server costs are appreciated!\"\n  }\n}\n \n"}],"executorName":"main","line":25,"name":"Get Demo 3","description":"","durationMillis":69.255117,"startTime":1677495325303,"failed":false,"refId":"[3:25]","endTime":1677495325373,"exampleIndex":-1},{"sectionIndex":3,"stepResults":[{"result":{"nanos":199454,"millis":0.199454,"status":"passed"},"step":{"background":true,"line":3,"prefix":"*","index":0,"text":"url \"https:\/\/reqres.in\/api\""}},{"result":{"nanos":163527,"millis":0.163527,"status":"passed"},"step":{"background":true,"line":4,"prefix":"*","index":1,"text":"header Accept = 'application\/json'"}},{"result":{"nanos":75989,"millis":0.075989,"status":"passed"},"step":{"line":34,"prefix":"Given","index":0,"text":"path  \"\/users\""}},{"result":{"nanos":353036,"millis":0.353036,"status":"passed"},"step":{"line":35,"prefix":"And","index":1,"text":"params page = 2"},"stepLog":"15:55:25.379 did not evaluate to map page = 2: [type: NUMBER, value: 2]\n"},{"result":{"nanos":101880609,"millis":101.880609,"status":"passed"},"step":{"line":36,"prefix":"When","index":2,"text":"method get"},"stepLog":"15:55:25.380 request:\n1 > GET https:\/\/reqres.in\/api\/users\n1 > Accept: application\/json\n1 > Host: reqres.in\n1 > Connection: Keep-Alive\n1 > User-Agent: Apache-HttpClient\/4.5.13 (Java\/19.0.2)\n1 > Accept-Encoding: gzip,deflate\n\n\n15:55:25.480 response time in milliseconds: 100\n1 < 200\n1 < Date: Mon, 27 Feb 2023 10:55:25 GMT\n1 < Content-Type: application\/json; charset=utf-8\n1 < Transfer-Encoding: chunked\n1 < Connection: keep-alive\n1 < X-Powered-By: Express\n1 < Access-Control-Allow-Origin: *\n1 < Etag: W\/\"3e4-2RLXvr5wTg9YQ6aH95CkYoFNuO8\"\n1 < Via: 1.1 vegur\n1 < Cache-Control: max-age=14400\n1 < CF-Cache-Status: HIT\n1 < Age: 1706\n1 < Report-To: {\"endpoints\":[{\"url\":\"https:\\\/\\\/a.nel.cloudflare.com\\\/report\\\/v3?s=KQfGYjrJN9wnMzeWyyXmTXxAG9Vjy%2B%2F0B1A%2BW0WJ%2FDbVvR0wDOEjf6G2p2UcOSjsH4G9s%2FEDQmigE1bCywwlE8PpiiWyF8%2Fm2h9VdloXlb4u%2FHJtbBfCF8vzTQ%3D%3D\"}],\"group\":\"cf-nel\",\"max_age\":604800}\n1 < NEL: {\"success_fraction\":0,\"report_to\":\"cf-nel\",\"max_age\":604800}\n1 < Vary: Accept-Encoding\n1 < Server: cloudflare\n1 < CF-RAY: 7a0063596987c972-KHI\n{\"page\":1,\"per_page\":6,\"total\":12,\"total_pages\":2,\"data\":[{\"id\":1,\"email\":\"george.bluth@reqres.in\",\"first_name\":\"George\",\"last_name\":\"Bluth\",\"avatar\":\"https:\/\/reqres.in\/img\/faces\/1-image.jpg\"},{\"id\":2,\"email\":\"janet.weaver@reqres.in\",\"first_name\":\"Janet\",\"last_name\":\"Weaver\",\"avatar\":\"https:\/\/reqres.in\/img\/faces\/2-image.jpg\"},{\"id\":3,\"email\":\"emma.wong@reqres.in\",\"first_name\":\"Emma\",\"last_name\":\"Wong\",\"avatar\":\"https:\/\/reqres.in\/img\/faces\/3-image.jpg\"},{\"id\":4,\"email\":\"eve.holt@reqres.in\",\"first_name\":\"Eve\",\"last_name\":\"Holt\",\"avatar\":\"https:\/\/reqres.in\/img\/faces\/4-image.jpg\"},{\"id\":5,\"email\":\"charles.morris@reqres.in\",\"first_name\":\"Charles\",\"last_name\":\"Morris\",\"avatar\":\"https:\/\/reqres.in\/img\/faces\/5-image.jpg\"},{\"id\":6,\"email\":\"tracey.ramos@reqres.in\",\"first_name\":\"Tracey\",\"last_name\":\"Ramos\",\"avatar\":\"https:\/\/reqres.in\/img\/faces\/6-image.jpg\"}],\"support\":{\"url\":\"https:\/\/reqres.in\/#support-heading\",\"text\":\"To keep ReqRes free, contributions towards server costs are appreciated!\"}}\n\n"},{"result":{"nanos":13408,"millis":0.013408,"status":"passed"},"step":{"line":37,"prefix":"Then","index":3,"text":"status 200"}},{"result":{"nanos":629100,"millis":0.6291,"status":"passed"},"step":{"line":38,"prefix":"And","index":4,"text":"print response"},"stepLog":"15:55:25.481 [print] {\n  \"page\": 1,\n  \"per_page\": 6,\n  \"total\": 12,\n  \"total_pages\": 2,\n  \"data\": [\n    {\n      \"id\": 1,\n      \"email\": \"george.bluth@reqres.in\",\n      \"first_name\": \"George\",\n      \"last_name\": \"Bluth\",\n      \"avatar\": \"https:\/\/reqres.in\/img\/faces\/1-image.jpg\"\n    },\n    {\n      \"id\": 2,\n      \"email\": \"janet.weaver@reqres.in\",\n      \"first_name\": \"Janet\",\n      \"last_name\": \"Weaver\",\n      \"avatar\": \"https:\/\/reqres.in\/img\/faces\/2-image.jpg\"\n    },\n    {\n      \"id\": 3,\n      \"email\": \"emma.wong@reqres.in\",\n      \"first_name\": \"Emma\",\n      \"last_name\": \"Wong\",\n      \"avatar\": \"https:\/\/reqres.in\/img\/faces\/3-image.jpg\"\n    },\n    {\n      \"id\": 4,\n      \"email\": \"eve.holt@reqres.in\",\n      \"first_name\": \"Eve\",\n      \"last_name\": \"Holt\",\n      \"avatar\": \"https:\/\/reqres.in\/img\/faces\/4-image.jpg\"\n    },\n    {\n      \"id\": 5,\n      \"email\": \"charles.morris@reqres.in\",\n      \"first_name\": \"Charles\",\n      \"last_name\": \"Morris\",\n      \"avatar\": \"https:\/\/reqres.in\/img\/faces\/5-image.jpg\"\n    },\n    {\n      \"id\": 6,\n      \"email\": \"tracey.ramos@reqres.in\",\n      \"first_name\": \"Tracey\",\n      \"last_name\": \"Ramos\",\n      \"avatar\": \"https:\/\/reqres.in\/img\/faces\/6-image.jpg\"\n    }\n  ],\n  \"support\": {\n    \"url\": \"https:\/\/reqres.in\/#support-heading\",\n    \"text\": \"To keep ReqRes free, contributions towards server costs are appreciated!\"\n  }\n}\n \n"},{"result":{"nanos":28824625,"millis":28.824625,"status":"passed"},"step":{"line":39,"prefix":"And","index":5,"text":"match response.data[0].first_name != null"}},{"result":{"nanos":5799849,"millis":5.799849,"status":"passed"},"step":{"line":40,"prefix":"And","index":6,"text":"assert response.data.length == 6"}},{"result":{"nanos":1413591,"errorMessage":"match failed: EQUALS\n  $ | not equal (NUMBER:NUMBER)\n  4\n  10\n\nsrc\/test\/tests\/get.feature:41","millis":1.413591,"status":"failed"},"step":{"line":41,"prefix":"And","index":7,"text":"match response.data[3].id == 10"},"stepLog":"15:55:25.518 src\/test\/tests\/get.feature:41\nAnd match response.data[3].id == 10\nmatch failed: EQUALS\n  $ | not equal (NUMBER:NUMBER)\n  4\n  10\n\nsrc\/test\/tests\/get.feature:41\n"}],"line":33,"description":"","durationMillis":139.353188,"failed":true,"error":"match failed: EQUALS\n  $ | not equal (NUMBER:NUMBER)\n  4\n  10\n\nsrc\/test\/tests\/get.feature:41","executorName":"main","name":"Get Demo 4","startTime":1677495325377,"refId":"[4:33]","endTime":1677495325518,"exampleIndex":-1}],"callDepth":0,"name":"Get API DEMO","description":"","resultDate":"2023-02-27 03:55:25 pm","durationMillis":738.272552,"passedCount":3}