{"failedCount":3,"prefixedPath":"src\/test\/tests\/get.feature","packageQualifiedName":"src.test.tests.get","loopIndex":-1,"relativePath":"src\/test\/tests\/get.feature","scenarioResults":[{"sectionIndex":0,"stepResults":[{"result":{"nanos":1076942,"millis":1.076942,"status":"passed"},"step":{"background":true,"line":3,"prefix":"*","index":0,"text":"url \"https:\/\/reqres.in\/api\""}},{"result":{"nanos":1223932,"millis":1.223932,"status":"passed"},"step":{"background":true,"line":4,"prefix":"*","index":1,"text":"header Accept = 'application\/json'"}},{"result":{"nanos":307917,"millis":0.307917,"status":"passed"},"step":{"line":8,"prefix":"Given","index":0,"text":"url  \"https:\/\/reqres.in\/api\/users?page=2\""}},{"result":{"nanos":367719919,"millis":367.719919,"status":"passed"},"step":{"line":9,"prefix":"When","index":1,"text":"method get"},"stepLog":"14:02:59.439 request:\n1 > GET https:\/\/reqres.in\/api\/users?page=2\n1 > Accept: application\/json\n1 > Host: reqres.in\n1 > Connection: Keep-Alive\n1 > User-Agent: Apache-HttpClient\/4.5.13 (Java\/19.0.2)\n1 > Accept-Encoding: gzip,deflate\n\n\n14:02:59.630 response time in milliseconds: 189\n1 < 200\n1 < Date: Mon, 20 Mar 2023 09:02:59 GMT\n1 < Content-Type: application\/json; charset=utf-8\n1 < Transfer-Encoding: chunked\n1 < Connection: keep-alive\n1 < X-Powered-By: Express\n1 < Access-Control-Allow-Origin: *\n1 < Etag: W\/\"406-ut0vzoCuidvyMf8arZpMpJ6ZRDw\"\n1 < Via: 1.1 vegur\n1 < Cache-Control: max-age=14400\n1 < CF-Cache-Status: HIT\n1 < Age: 5258\n1 < Report-To: {\"endpoints\":[{\"url\":\"https:\\\/\\\/a.nel.cloudflare.com\\\/report\\\/v3?s=h1XE3VKBoQb8m%2BLgl6Y6Rfhl0QpzZcEt5jXdwl%2FfteS7nuGQzQ%2FT1klXzEZkW1WxOGt3JcKcE81AoOgHPARngoExY%2BBq6VJVcUyrtrZV8cWzk3j6h%2BWTCOP9hA%3D%3D\"}],\"group\":\"cf-nel\",\"max_age\":604800}\n1 < NEL: {\"success_fraction\":0,\"report_to\":\"cf-nel\",\"max_age\":604800}\n1 < Vary: Accept-Encoding\n1 < Server: cloudflare\n1 < CF-RAY: 7aacc787cb5ac904-KHI\n{\"page\":2,\"per_page\":6,\"total\":12,\"total_pages\":2,\"data\":[{\"id\":7,\"email\":\"michael.lawson@reqres.in\",\"first_name\":\"Michael\",\"last_name\":\"Lawson\",\"avatar\":\"https:\/\/reqres.in\/img\/faces\/7-image.jpg\"},{\"id\":8,\"email\":\"lindsay.ferguson@reqres.in\",\"first_name\":\"Lindsay\",\"last_name\":\"Ferguson\",\"avatar\":\"https:\/\/reqres.in\/img\/faces\/8-image.jpg\"},{\"id\":9,\"email\":\"tobias.funke@reqres.in\",\"first_name\":\"Tobias\",\"last_name\":\"Funke\",\"avatar\":\"https:\/\/reqres.in\/img\/faces\/9-image.jpg\"},{\"id\":10,\"email\":\"byron.fields@reqres.in\",\"first_name\":\"Byron\",\"last_name\":\"Fields\",\"avatar\":\"https:\/\/reqres.in\/img\/faces\/10-image.jpg\"},{\"id\":11,\"email\":\"george.edwards@reqres.in\",\"first_name\":\"George\",\"last_name\":\"Edwards\",\"avatar\":\"https:\/\/reqres.in\/img\/faces\/11-image.jpg\"},{\"id\":12,\"email\":\"rachel.howell@reqres.in\",\"first_name\":\"Rachel\",\"last_name\":\"Howell\",\"avatar\":\"https:\/\/reqres.in\/img\/faces\/12-image.jpg\"}],\"support\":{\"url\":\"https:\/\/reqres.in\/#support-heading\",\"text\":\"To keep ReqRes free, contributions towards server costs are appreciated!\"}}\n\n"},{"result":{"nanos":2170693,"millis":2.170693,"status":"passed"},"step":{"line":10,"prefix":"Then","index":2,"text":"status 200"}},{"result":{"nanos":6919921,"millis":6.919921,"status":"passed"},"step":{"line":11,"prefix":"And","index":3,"text":"print response"},"stepLog":"14:02:59.660 [print] {\n  \"page\": 2,\n  \"per_page\": 6,\n  \"total\": 12,\n  \"total_pages\": 2,\n  \"data\": [\n    {\n      \"id\": 7,\n      \"email\": \"michael.lawson@reqres.in\",\n      \"first_name\": \"Michael\",\n      \"last_name\": \"Lawson\",\n      \"avatar\": \"https:\/\/reqres.in\/img\/faces\/7-image.jpg\"\n    },\n    {\n      \"id\": 8,\n      \"email\": \"lindsay.ferguson@reqres.in\",\n      \"first_name\": \"Lindsay\",\n      \"last_name\": \"Ferguson\",\n      \"avatar\": \"https:\/\/reqres.in\/img\/faces\/8-image.jpg\"\n    },\n    {\n      \"id\": 9,\n      \"email\": \"tobias.funke@reqres.in\",\n      \"first_name\": \"Tobias\",\n      \"last_name\": \"Funke\",\n      \"avatar\": \"https:\/\/reqres.in\/img\/faces\/9-image.jpg\"\n    },\n    {\n      \"id\": 10,\n      \"email\": \"byron.fields@reqres.in\",\n      \"first_name\": \"Byron\",\n      \"last_name\": \"Fields\",\n      \"avatar\": \"https:\/\/reqres.in\/img\/faces\/10-image.jpg\"\n    },\n    {\n      \"id\": 11,\n      \"email\": \"george.edwards@reqres.in\",\n      \"first_name\": \"George\",\n      \"last_name\": \"Edwards\",\n      \"avatar\": \"https:\/\/reqres.in\/img\/faces\/11-image.jpg\"\n    },\n    {\n      \"id\": 12,\n      \"email\": \"rachel.howell@reqres.in\",\n      \"first_name\": \"Rachel\",\n      \"last_name\": \"Howell\",\n      \"avatar\": \"https:\/\/reqres.in\/img\/faces\/12-image.jpg\"\n    }\n  ],\n  \"support\": {\n    \"url\": \"https:\/\/reqres.in\/#support-heading\",\n    \"text\": \"To keep ReqRes free, contributions towards server costs are appreciated!\"\n  }\n}\n \n"},{"result":{"nanos":959092,"millis":0.959092,"status":"passed"},"step":{"line":12,"prefix":"And","index":4,"text":"print responseStatus"},"stepLog":"14:02:59.662 [print] 200 \n"},{"result":{"nanos":826788,"millis":0.826788,"status":"passed"},"step":{"line":13,"prefix":"And","index":5,"text":"print responseTime"},"stepLog":"14:02:59.663 [print] 189 \n"},{"result":{"nanos":1139357,"millis":1.139357,"status":"passed"},"step":{"line":14,"prefix":"And","index":6,"text":"print responseHeaders"},"stepLog":"14:02:59.664 [print] {\n  \"Date\": [\n    \"Mon, 20 Mar 2023 09:02:59 GMT\"\n  ],\n  \"Content-Type\": [\n    \"application\/json; charset=utf-8\"\n  ],\n  \"Transfer-Encoding\": [\n    \"chunked\"\n  ],\n  \"Connection\": [\n    \"keep-alive\"\n  ],\n  \"X-Powered-By\": [\n    \"Express\"\n  ],\n  \"Access-Control-Allow-Origin\": [\n    \"*\"\n  ],\n  \"Etag\": [\n    \"W\/\\\"406-ut0vzoCuidvyMf8arZpMpJ6ZRDw\\\"\"\n  ],\n  \"Via\": [\n    \"1.1 vegur\"\n  ],\n  \"Cache-Control\": [\n    \"max-age=14400\"\n  ],\n  \"CF-Cache-Status\": [\n    \"HIT\"\n  ],\n  \"Age\": [\n    \"5258\"\n  ],\n  \"Report-To\": [\n    \"{\\\"endpoints\\\":[{\\\"url\\\":\\\"https:\\\\\/\\\\\/a.nel.cloudflare.com\\\\\/report\\\\\/v3?s=h1XE3VKBoQb8m%2BLgl6Y6Rfhl0QpzZcEt5jXdwl%2FfteS7nuGQzQ%2FT1klXzEZkW1WxOGt3JcKcE81AoOgHPARngoExY%2BBq6VJVcUyrtrZV8cWzk3j6h%2BWTCOP9hA%3D%3D\\\"}],\\\"group\\\":\\\"cf-nel\\\",\\\"max_age\\\":604800}\"\n  ],\n  \"NEL\": [\n    \"{\\\"success_fraction\\\":0,\\\"report_to\\\":\\\"cf-nel\\\",\\\"max_age\\\":604800}\"\n  ],\n  \"Vary\": [\n    \"Accept-Encoding\"\n  ],\n  \"Server\": [\n    \"cloudflare\"\n  ],\n  \"CF-RAY\": [\n    \"7aacc787cb5ac904-KHI\"\n  ],\n  \"Set-Cookie\": [\n  ]\n}\n \n"},{"result":{"nanos":926265,"millis":0.926265,"status":"passed"},"step":{"line":15,"prefix":"And","index":7,"text":"print responseCookies"},"stepLog":"14:02:59.665 [print] {\n}\n \n"}],"executorName":"main","line":7,"name":"Get Demo 1","description":"","durationMillis":383.270826,"startTime":1679302979171,"failed":false,"refId":"[1:7]","endTime":1679302979665,"exampleIndex":-1},{"sectionIndex":1,"stepResults":[{"result":{"nanos":233711,"millis":0.233711,"status":"passed"},"step":{"background":true,"line":3,"prefix":"*","index":0,"text":"url \"https:\/\/reqres.in\/api\""}},{"result":{"nanos":130281,"millis":0.130281,"status":"passed"},"step":{"background":true,"line":4,"prefix":"*","index":1,"text":"header Accept = 'application\/json'"}},{"result":{"nanos":587875,"millis":0.587875,"status":"passed"},"step":{"line":19,"prefix":"Given","index":0,"text":"path  \"\/users?page=2\""}},{"result":{"nanos":83870802,"errorMessage":"http call failed after 84 milliseconds for url: https:\/\/reqres.in\/api\/users%3Fpage=2\nsrc\/test\/tests\/get.feature:20","millis":83.870802,"status":"failed"},"step":{"line":20,"prefix":"When","index":1,"text":"method get"},"stepLog":"14:02:59.673 request:\n1 > GET https:\/\/reqres.in\/api\/users%3Fpage=2\n1 > Accept: application\/json\n1 > Host: reqres.in\n1 > Connection: Keep-Alive\n1 > User-Agent: Apache-HttpClient\/4.5.13 (Java\/19.0.2)\n1 > Accept-Encoding: gzip,deflate\n\n\n14:02:59.756 java.net.SocketTimeoutException: Read timed out, http call failed after 84 milliseconds for url: https:\/\/reqres.in\/api\/users%3Fpage=2\n14:02:59.756 src\/test\/tests\/get.feature:20\nWhen method get\nhttp call failed after 84 milliseconds for url: https:\/\/reqres.in\/api\/users%3Fpage=2\nsrc\/test\/tests\/get.feature:20\n"},{"result":{"nanos":0,"millis":0.0,"status":"skipped"},"step":{"line":21,"prefix":"Then","index":2,"text":"status 200"}},{"result":{"nanos":0,"millis":0.0,"status":"skipped"},"step":{"line":22,"prefix":"And","index":3,"text":"print response"}}],"line":18,"description":"","durationMillis":84.822669,"failed":true,"error":"http call failed after 84 milliseconds for url: https:\/\/reqres.in\/api\/users%3Fpage=2\nsrc\/test\/tests\/get.feature:20","executorName":"main","name":"Get Demo 2","startTime":1679302979670,"refId":"[2:18]","endTime":1679302979756,"exampleIndex":-1},{"sectionIndex":2,"stepResults":[{"result":{"nanos":167519,"millis":0.167519,"status":"passed"},"step":{"background":true,"line":3,"prefix":"*","index":0,"text":"url \"https:\/\/reqres.in\/api\""}},{"result":{"nanos":124112,"millis":0.124112,"status":"passed"},"step":{"background":true,"line":4,"prefix":"*","index":1,"text":"header Accept = 'application\/json'"}},{"result":{"nanos":390377,"millis":0.390377,"status":"passed"},"step":{"line":26,"prefix":"Given","index":0,"text":"path  \"\/users\""}},{"result":{"nanos":2963436,"millis":2.963436,"status":"passed"},"step":{"line":27,"prefix":"And","index":1,"text":"params page = 2"},"stepLog":"14:02:59.765 did not evaluate to map page = 2: [type: NUMBER, value: 2]\n"},{"result":{"nanos":78309918,"errorMessage":"http call failed after 78 milliseconds for url: https:\/\/reqres.in\/api\/users\nsrc\/test\/tests\/get.feature:28","millis":78.309918,"status":"failed"},"step":{"line":28,"prefix":"When","index":2,"text":"method get"},"stepLog":"14:02:59.766 request:\n1 > GET https:\/\/reqres.in\/api\/users\n1 > Accept: application\/json\n1 > Host: reqres.in\n1 > Connection: Keep-Alive\n1 > User-Agent: Apache-HttpClient\/4.5.13 (Java\/19.0.2)\n1 > Accept-Encoding: gzip,deflate\n\n\n14:02:59.844 java.net.SocketTimeoutException: Read timed out, http call failed after 78 milliseconds for url: https:\/\/reqres.in\/api\/users\n14:02:59.844 src\/test\/tests\/get.feature:28\nWhen method get\nhttp call failed after 78 milliseconds for url: https:\/\/reqres.in\/api\/users\nsrc\/test\/tests\/get.feature:28\n"},{"result":{"nanos":0,"millis":0.0,"status":"skipped"},"step":{"line":29,"prefix":"Then","index":3,"text":"status 200"}},{"result":{"nanos":0,"millis":0.0,"status":"skipped"},"step":{"line":30,"prefix":"And","index":4,"text":"print response"}}],"line":25,"description":"","durationMillis":81.955362,"failed":true,"error":"http call failed after 78 milliseconds for url: https:\/\/reqres.in\/api\/users\nsrc\/test\/tests\/get.feature:28","executorName":"main","name":"Get Demo 3","startTime":1679302979761,"refId":"[3:25]","endTime":1679302979844,"exampleIndex":-1},{"sectionIndex":3,"stepResults":[{"result":{"nanos":152913,"millis":0.152913,"status":"passed"},"step":{"background":true,"line":3,"prefix":"*","index":0,"text":"url \"https:\/\/reqres.in\/api\""}},{"result":{"nanos":121553,"millis":0.121553,"status":"passed"},"step":{"background":true,"line":4,"prefix":"*","index":1,"text":"header Accept = 'application\/json'"}},{"result":{"nanos":65841,"millis":0.065841,"status":"passed"},"step":{"line":34,"prefix":"Given","index":0,"text":"path  \"\/users\""}},{"result":{"nanos":326275,"millis":0.326275,"status":"passed"},"step":{"line":35,"prefix":"And","index":1,"text":"params page = 2"},"stepLog":"14:02:59.850 did not evaluate to map page = 2: [type: NUMBER, value: 2]\n"},{"result":{"nanos":102346730,"errorMessage":"http call failed after 102 milliseconds for url: https:\/\/reqres.in\/api\/users\nsrc\/test\/tests\/get.feature:36","millis":102.34673,"status":"failed"},"step":{"line":36,"prefix":"When","index":2,"text":"method get"},"stepLog":"14:02:59.851 request:\n1 > GET https:\/\/reqres.in\/api\/users\n1 > Accept: application\/json\n1 > Host: reqres.in\n1 > Connection: Keep-Alive\n1 > User-Agent: Apache-HttpClient\/4.5.13 (Java\/19.0.2)\n1 > Accept-Encoding: gzip,deflate\n\n\n14:02:59.952 java.net.SocketTimeoutException: Read timed out, http call failed after 102 milliseconds for url: https:\/\/reqres.in\/api\/users\n14:02:59.953 src\/test\/tests\/get.feature:36\nWhen method get\nhttp call failed after 102 milliseconds for url: https:\/\/reqres.in\/api\/users\nsrc\/test\/tests\/get.feature:36\n"},{"result":{"nanos":0,"millis":0.0,"status":"skipped"},"step":{"line":37,"prefix":"Then","index":3,"text":"status 200"}},{"result":{"nanos":0,"millis":0.0,"status":"skipped"},"step":{"line":38,"prefix":"And","index":4,"text":"print response"}},{"result":{"nanos":0,"millis":0.0,"status":"skipped"},"step":{"line":39,"prefix":"And","index":5,"text":"match response.data[0].first_name != null"}},{"result":{"nanos":0,"millis":0.0,"status":"skipped"},"step":{"line":40,"prefix":"And","index":6,"text":"assert response.data.length == 6"}},{"result":{"nanos":0,"millis":0.0,"status":"skipped"},"step":{"line":41,"prefix":"And","index":7,"text":"match $.data[3].id == 4"}},{"result":{"nanos":0,"millis":0.0,"status":"skipped"},"step":{"line":42,"prefix":"And","index":8,"text":"match response.data[4].last_name == 'Morris'"}}],"line":33,"description":"","durationMillis":103.013312,"failed":true,"error":"http call failed after 102 milliseconds for url: https:\/\/reqres.in\/api\/users\nsrc\/test\/tests\/get.feature:36","executorName":"main","name":"Get Demo 4","startTime":1679302979848,"refId":"[4:33]","endTime":1679302979953,"exampleIndex":-1}],"callDepth":0,"name":"Get API DEMO","description":"","resultDate":"2023-03-20 02:02:59 pm","durationMillis":653.062169,"passedCount":1}