{"failedCount":0,"prefixedPath":"src\/test\/tests\/get.feature","packageQualifiedName":"src.test.tests.get","loopIndex":-1,"relativePath":"src\/test\/tests\/get.feature","scenarioResults":[{"sectionIndex":0,"stepResults":[{"result":{"nanos":68973803,"millis":68.973803,"status":"passed"},"step":{"background":true,"line":3,"prefix":"*","index":0,"text":"url \"https:\/\/reqres.in\/api\""}},{"result":{"nanos":1604909,"millis":1.604909,"status":"passed"},"step":{"background":true,"line":4,"prefix":"*","index":1,"text":"header Accept = 'application\/json'"}},{"result":{"nanos":346907,"millis":0.346907,"status":"passed"},"step":{"line":8,"prefix":"Given","index":0,"text":"url  \"https:\/\/reqres.in\/api\/users?page=2\""}},{"result":{"nanos":553206217,"millis":553.206217,"status":"passed"},"step":{"line":9,"prefix":"When","index":1,"text":"method get"},"stepLog":"15:26:58.384 request:\n1 > GET https:\/\/reqres.in\/api\/users?page=2\n1 > Accept: application\/json\n1 > Host: reqres.in\n1 > Connection: Keep-Alive\n1 > User-Agent: Apache-HttpClient\/4.5.13 (Java\/19.0.2)\n1 > Accept-Encoding: gzip,deflate\n\n\n15:26:58.724 response time in milliseconds: 338\n1 < 200\n1 < Date: Mon, 27 Feb 2023 10:26:58 GMT\n1 < Content-Type: application\/json; charset=utf-8\n1 < Transfer-Encoding: chunked\n1 < Connection: keep-alive\n1 < X-Powered-By: Express\n1 < Access-Control-Allow-Origin: *\n1 < Etag: W\/\"406-ut0vzoCuidvyMf8arZpMpJ6ZRDw\"\n1 < Via: 1.1 vegur\n1 < Cache-Control: max-age=14400\n1 < CF-Cache-Status: HIT\n1 < Age: 7197\n1 < Report-To: {\"endpoints\":[{\"url\":\"https:\\\/\\\/a.nel.cloudflare.com\\\/report\\\/v3?s=M%2BpbYA97WIobMSyL%2BoLFu7WU1av22KmXD9fql%2F61T4piW11haS3euOG8bQAEUYG99X97dWhmksuCB0jGlQAlGs5IPkDP%2BUBHt1XzNe59uXIEMpImCKvgrTOyPg%3D%3D\"}],\"group\":\"cf-nel\",\"max_age\":604800}\n1 < NEL: {\"success_fraction\":0,\"report_to\":\"cf-nel\",\"max_age\":604800}\n1 < Vary: Accept-Encoding\n1 < Server: cloudflare\n1 < CF-RAY: 7a0039ae7d59d04d-KHI\n{\"page\":2,\"per_page\":6,\"total\":12,\"total_pages\":2,\"data\":[{\"id\":7,\"email\":\"michael.lawson@reqres.in\",\"first_name\":\"Michael\",\"last_name\":\"Lawson\",\"avatar\":\"https:\/\/reqres.in\/img\/faces\/7-image.jpg\"},{\"id\":8,\"email\":\"lindsay.ferguson@reqres.in\",\"first_name\":\"Lindsay\",\"last_name\":\"Ferguson\",\"avatar\":\"https:\/\/reqres.in\/img\/faces\/8-image.jpg\"},{\"id\":9,\"email\":\"tobias.funke@reqres.in\",\"first_name\":\"Tobias\",\"last_name\":\"Funke\",\"avatar\":\"https:\/\/reqres.in\/img\/faces\/9-image.jpg\"},{\"id\":10,\"email\":\"byron.fields@reqres.in\",\"first_name\":\"Byron\",\"last_name\":\"Fields\",\"avatar\":\"https:\/\/reqres.in\/img\/faces\/10-image.jpg\"},{\"id\":11,\"email\":\"george.edwards@reqres.in\",\"first_name\":\"George\",\"last_name\":\"Edwards\",\"avatar\":\"https:\/\/reqres.in\/img\/faces\/11-image.jpg\"},{\"id\":12,\"email\":\"rachel.howell@reqres.in\",\"first_name\":\"Rachel\",\"last_name\":\"Howell\",\"avatar\":\"https:\/\/reqres.in\/img\/faces\/12-image.jpg\"}],\"support\":{\"url\":\"https:\/\/reqres.in\/#support-heading\",\"text\":\"To keep ReqRes free, contributions towards server costs are appreciated!\"}}\n\n"},{"result":{"nanos":2198820,"millis":2.19882,"status":"passed"},"step":{"line":10,"prefix":"Then","index":2,"text":"status 200"}},{"result":{"nanos":54623061,"millis":54.623061,"status":"passed"},"step":{"line":11,"prefix":"And","index":3,"text":"print response"},"stepLog":"15:26:58.809 [print] {\n  \"page\": 2,\n  \"per_page\": 6,\n  \"total\": 12,\n  \"total_pages\": 2,\n  \"data\": [\n    {\n      \"id\": 7,\n      \"email\": \"michael.lawson@reqres.in\",\n      \"first_name\": \"Michael\",\n      \"last_name\": \"Lawson\",\n      \"avatar\": \"https:\/\/reqres.in\/img\/faces\/7-image.jpg\"\n    },\n    {\n      \"id\": 8,\n      \"email\": \"lindsay.ferguson@reqres.in\",\n      \"first_name\": \"Lindsay\",\n      \"last_name\": \"Ferguson\",\n      \"avatar\": \"https:\/\/reqres.in\/img\/faces\/8-image.jpg\"\n    },\n    {\n      \"id\": 9,\n      \"email\": \"tobias.funke@reqres.in\",\n      \"first_name\": \"Tobias\",\n      \"last_name\": \"Funke\",\n      \"avatar\": \"https:\/\/reqres.in\/img\/faces\/9-image.jpg\"\n    },\n    {\n      \"id\": 10,\n      \"email\": \"byron.fields@reqres.in\",\n      \"first_name\": \"Byron\",\n      \"last_name\": \"Fields\",\n      \"avatar\": \"https:\/\/reqres.in\/img\/faces\/10-image.jpg\"\n    },\n    {\n      \"id\": 11,\n      \"email\": \"george.edwards@reqres.in\",\n      \"first_name\": \"George\",\n      \"last_name\": \"Edwards\",\n      \"avatar\": \"https:\/\/reqres.in\/img\/faces\/11-image.jpg\"\n    },\n    {\n      \"id\": 12,\n      \"email\": \"rachel.howell@reqres.in\",\n      \"first_name\": \"Rachel\",\n      \"last_name\": \"Howell\",\n      \"avatar\": \"https:\/\/reqres.in\/img\/faces\/12-image.jpg\"\n    }\n  ],\n  \"support\": {\n    \"url\": \"https:\/\/reqres.in\/#support-heading\",\n    \"text\": \"To keep ReqRes free, contributions towards server costs are appreciated!\"\n  }\n}\n \n"},{"result":{"nanos":1666474,"millis":1.666474,"status":"passed"},"step":{"line":12,"prefix":"And","index":4,"text":"print responseStatus"},"stepLog":"15:26:58.812 [print] 200 \n"},{"result":{"nanos":548786,"millis":0.548786,"status":"passed"},"step":{"line":13,"prefix":"And","index":5,"text":"print responseTime"},"stepLog":"15:26:58.813 [print] 338 \n"},{"result":{"nanos":623619,"millis":0.623619,"status":"passed"},"step":{"line":14,"prefix":"And","index":6,"text":"print responseHeaders"},"stepLog":"15:26:58.813 [print] {\n  \"Date\": [\n    \"Mon, 27 Feb 2023 10:26:58 GMT\"\n  ],\n  \"Content-Type\": [\n    \"application\/json; charset=utf-8\"\n  ],\n  \"Transfer-Encoding\": [\n    \"chunked\"\n  ],\n  \"Connection\": [\n    \"keep-alive\"\n  ],\n  \"X-Powered-By\": [\n    \"Express\"\n  ],\n  \"Access-Control-Allow-Origin\": [\n    \"*\"\n  ],\n  \"Etag\": [\n    \"W\/\\\"406-ut0vzoCuidvyMf8arZpMpJ6ZRDw\\\"\"\n  ],\n  \"Via\": [\n    \"1.1 vegur\"\n  ],\n  \"Cache-Control\": [\n    \"max-age=14400\"\n  ],\n  \"CF-Cache-Status\": [\n    \"HIT\"\n  ],\n  \"Age\": [\n    \"7197\"\n  ],\n  \"Report-To\": [\n    \"{\\\"endpoints\\\":[{\\\"url\\\":\\\"https:\\\\\/\\\\\/a.nel.cloudflare.com\\\\\/report\\\\\/v3?s=M%2BpbYA97WIobMSyL%2BoLFu7WU1av22KmXD9fql%2F61T4piW11haS3euOG8bQAEUYG99X97dWhmksuCB0jGlQAlGs5IPkDP%2BUBHt1XzNe59uXIEMpImCKvgrTOyPg%3D%3D\\\"}],\\\"group\\\":\\\"cf-nel\\\",\\\"max_age\\\":604800}\"\n  ],\n  \"NEL\": [\n    \"{\\\"success_fraction\\\":0,\\\"report_to\\\":\\\"cf-nel\\\",\\\"max_age\\\":604800}\"\n  ],\n  \"Vary\": [\n    \"Accept-Encoding\"\n  ],\n  \"Server\": [\n    \"cloudflare\"\n  ],\n  \"CF-RAY\": [\n    \"7a0039ae7d59d04d-KHI\"\n  ],\n  \"Set-Cookie\": [\n  ]\n}\n \n"},{"result":{"nanos":477947,"millis":0.477947,"status":"passed"},"step":{"line":15,"prefix":"And","index":7,"text":"print responseCookies"},"stepLog":"15:26:58.814 [print] {\n}\n \n"}],"executorName":"main","line":7,"name":"Get Demo 1","description":"","durationMillis":684.270543,"startTime":1677493618115,"failed":false,"refId":"[1:7]","endTime":1677493618814,"exampleIndex":-1},{"sectionIndex":1,"stepResults":[{"result":{"nanos":366042,"millis":0.366042,"status":"passed"},"step":{"background":true,"line":3,"prefix":"*","index":0,"text":"url \"https:\/\/reqres.in\/api\""}},{"result":{"nanos":126014,"millis":0.126014,"status":"passed"},"step":{"background":true,"line":4,"prefix":"*","index":1,"text":"header Accept = 'application\/json'"}},{"result":{"nanos":641237,"millis":0.641237,"status":"passed"},"step":{"line":19,"prefix":"Given","index":0,"text":"path  \"\/users?page=2\""}},{"result":{"nanos":66665897,"millis":66.665897,"status":"passed"},"step":{"line":20,"prefix":"When","index":1,"text":"method get"},"stepLog":"15:26:58.824 request:\n1 > GET https:\/\/reqres.in\/api\/users%3Fpage=2\n1 > Accept: application\/json\n1 > Host: reqres.in\n1 > Connection: Keep-Alive\n1 > User-Agent: Apache-HttpClient\/4.5.13 (Java\/19.0.2)\n1 > Accept-Encoding: gzip,deflate\n\n\n15:26:58.888 response time in milliseconds: 64\n1 < 200\n1 < Date: Mon, 27 Feb 2023 10:26:59 GMT\n1 < Content-Type: application\/json; charset=utf-8\n1 < Transfer-Encoding: chunked\n1 < Connection: keep-alive\n1 < X-Powered-By: Express\n1 < Access-Control-Allow-Origin: *\n1 < Etag: W\/\"2c1-N6Rqerxquq2kgQhL51EiSg4x0R8\"\n1 < Via: 1.1 vegur\n1 < Cache-Control: max-age=14400\n1 < CF-Cache-Status: HIT\n1 < Age: 6825\n1 < Report-To: {\"endpoints\":[{\"url\":\"https:\\\/\\\/a.nel.cloudflare.com\\\/report\\\/v3?s=GuFMrx%2BO1jF%2FFDgMDtTdwamkJEssyPLyHwuXfV%2Fp9PvWkSuLQskYf8O3mF3UnF8OBlqChZrYvmpWM1zXQ3rjRdmdKew5mQ9K30PsA2EPSAVVrJ9fJ1nvsE0gdg%3D%3D\"}],\"group\":\"cf-nel\",\"max_age\":604800}\n1 < NEL: {\"success_fraction\":0,\"report_to\":\"cf-nel\",\"max_age\":604800}\n1 < Vary: Accept-Encoding\n1 < Server: cloudflare\n1 < CF-RAY: 7a0039af888ac904-KHI\n{\"page\":1,\"per_page\":6,\"total\":12,\"total_pages\":2,\"data\":[{\"id\":1,\"name\":\"cerulean\",\"year\":2000,\"color\":\"#98B2D1\",\"pantone_value\":\"15-4020\"},{\"id\":2,\"name\":\"fuchsia rose\",\"year\":2001,\"color\":\"#C74375\",\"pantone_value\":\"17-2031\"},{\"id\":3,\"name\":\"true red\",\"year\":2002,\"color\":\"#BF1932\",\"pantone_value\":\"19-1664\"},{\"id\":4,\"name\":\"aqua sky\",\"year\":2003,\"color\":\"#7BC4C4\",\"pantone_value\":\"14-4811\"},{\"id\":5,\"name\":\"tigerlily\",\"year\":2004,\"color\":\"#E2583E\",\"pantone_value\":\"17-1456\"},{\"id\":6,\"name\":\"blue turquoise\",\"year\":2005,\"color\":\"#53B0AE\",\"pantone_value\":\"15-5217\"}],\"support\":{\"url\":\"https:\/\/reqres.in\/#support-heading\",\"text\":\"To keep ReqRes free, contributions towards server costs are appreciated!\"}}\n\n"},{"result":{"nanos":14054,"millis":0.014054,"status":"passed"},"step":{"line":21,"prefix":"Then","index":2,"text":"status 200"}},{"result":{"nanos":712052,"millis":0.712052,"status":"passed"},"step":{"line":22,"prefix":"And","index":3,"text":"print response"},"stepLog":"15:26:58.890 [print] {\n  \"page\": 1,\n  \"per_page\": 6,\n  \"total\": 12,\n  \"total_pages\": 2,\n  \"data\": [\n    {\n      \"id\": 1,\n      \"name\": \"cerulean\",\n      \"year\": 2000,\n      \"color\": \"#98B2D1\",\n      \"pantone_value\": \"15-4020\"\n    },\n    {\n      \"id\": 2,\n      \"name\": \"fuchsia rose\",\n      \"year\": 2001,\n      \"color\": \"#C74375\",\n      \"pantone_value\": \"17-2031\"\n    },\n    {\n      \"id\": 3,\n      \"name\": \"true red\",\n      \"year\": 2002,\n      \"color\": \"#BF1932\",\n      \"pantone_value\": \"19-1664\"\n    },\n    {\n      \"id\": 4,\n      \"name\": \"aqua sky\",\n      \"year\": 2003,\n      \"color\": \"#7BC4C4\",\n      \"pantone_value\": \"14-4811\"\n    },\n    {\n      \"id\": 5,\n      \"name\": \"tigerlily\",\n      \"year\": 2004,\n      \"color\": \"#E2583E\",\n      \"pantone_value\": \"17-1456\"\n    },\n    {\n      \"id\": 6,\n      \"name\": \"blue turquoise\",\n      \"year\": 2005,\n      \"color\": \"#53B0AE\",\n      \"pantone_value\": \"15-5217\"\n    }\n  ],\n  \"support\": {\n    \"url\": \"https:\/\/reqres.in\/#support-heading\",\n    \"text\": \"To keep ReqRes free, contributions towards server costs are appreciated!\"\n  }\n}\n \n"}],"executorName":"main","line":18,"name":"Get Demo 2","description":"","durationMillis":68.525296,"startTime":1677493618821,"failed":false,"refId":"[2:18]","endTime":1677493618890,"exampleIndex":-1},{"sectionIndex":2,"stepResults":[{"result":{"nanos":185510,"millis":0.18551,"status":"passed"},"step":{"background":true,"line":3,"prefix":"*","index":0,"text":"url \"https:\/\/reqres.in\/api\""}},{"result":{"nanos":144256,"millis":0.144256,"status":"passed"},"step":{"background":true,"line":4,"prefix":"*","index":1,"text":"header Accept = 'application\/json'"}},{"result":{"nanos":408991,"millis":0.408991,"status":"passed"},"step":{"line":26,"prefix":"Given","index":0,"text":"path  \"\/users\""}},{"result":{"nanos":4220825,"millis":4.220825,"status":"passed"},"step":{"line":27,"prefix":"And","index":1,"text":"params page = 2"},"stepLog":"15:26:58.900 did not evaluate to map page = 2: [type: NUMBER, value: 2]\n"},{"result":{"nanos":508896981,"millis":508.896981,"status":"passed"},"step":{"line":28,"prefix":"When","index":2,"text":"method get"},"stepLog":"15:26:58.902 request:\n1 > GET https:\/\/reqres.in\/api\/users\n1 > Accept: application\/json\n1 > Host: reqres.in\n1 > Connection: Keep-Alive\n1 > User-Agent: Apache-HttpClient\/4.5.13 (Java\/19.0.2)\n1 > Accept-Encoding: gzip,deflate\n\n\n15:26:59.408 response time in milliseconds: 506\n1 < 200\n1 < Date: Mon, 27 Feb 2023 10:26:59 GMT\n1 < Content-Type: application\/json; charset=utf-8\n1 < Transfer-Encoding: chunked\n1 < Connection: keep-alive\n1 < X-Powered-By: Express\n1 < Access-Control-Allow-Origin: *\n1 < Etag: W\/\"3e4-2RLXvr5wTg9YQ6aH95CkYoFNuO8\"\n1 < Via: 1.1 vegur\n1 < Cache-Control: max-age=14400\n1 < CF-Cache-Status: REVALIDATED\n1 < Report-To: {\"endpoints\":[{\"url\":\"https:\\\/\\\/a.nel.cloudflare.com\\\/report\\\/v3?s=qqvlpJOwGhdkwEqh3qAzby1DocxsAA%2FhIC4%2FIBO9L%2BM3LQr59Xl7ue2FZW0ny98Dc5i6K8nH64uMEWf88amXghzwn%2Fjjurj%2Fc%2Bq%2B4DPer0VMNmDms3e%2Fbnx5gg%3D%3D\"}],\"group\":\"cf-nel\",\"max_age\":604800}\n1 < NEL: {\"success_fraction\":0,\"report_to\":\"cf-nel\",\"max_age\":604800}\n1 < Vary: Accept-Encoding\n1 < Server: cloudflare\n1 < CF-RAY: 7a0039b02c60d059-KHI\n{\"page\":1,\"per_page\":6,\"total\":12,\"total_pages\":2,\"data\":[{\"id\":1,\"email\":\"george.bluth@reqres.in\",\"first_name\":\"George\",\"last_name\":\"Bluth\",\"avatar\":\"https:\/\/reqres.in\/img\/faces\/1-image.jpg\"},{\"id\":2,\"email\":\"janet.weaver@reqres.in\",\"first_name\":\"Janet\",\"last_name\":\"Weaver\",\"avatar\":\"https:\/\/reqres.in\/img\/faces\/2-image.jpg\"},{\"id\":3,\"email\":\"emma.wong@reqres.in\",\"first_name\":\"Emma\",\"last_name\":\"Wong\",\"avatar\":\"https:\/\/reqres.in\/img\/faces\/3-image.jpg\"},{\"id\":4,\"email\":\"eve.holt@reqres.in\",\"first_name\":\"Eve\",\"last_name\":\"Holt\",\"avatar\":\"https:\/\/reqres.in\/img\/faces\/4-image.jpg\"},{\"id\":5,\"email\":\"charles.morris@reqres.in\",\"first_name\":\"Charles\",\"last_name\":\"Morris\",\"avatar\":\"https:\/\/reqres.in\/img\/faces\/5-image.jpg\"},{\"id\":6,\"email\":\"tracey.ramos@reqres.in\",\"first_name\":\"Tracey\",\"last_name\":\"Ramos\",\"avatar\":\"https:\/\/reqres.in\/img\/faces\/6-image.jpg\"}],\"support\":{\"url\":\"https:\/\/reqres.in\/#support-heading\",\"text\":\"To keep ReqRes free, contributions towards server costs are appreciated!\"}}\n\n"},{"result":{"nanos":12704,"millis":0.012704,"status":"passed"},"step":{"line":29,"prefix":"Then","index":3,"text":"status 200"}},{"result":{"nanos":812639,"millis":0.812639,"status":"passed"},"step":{"line":30,"prefix":"And","index":4,"text":"print response"},"stepLog":"15:26:59.410 [print] {\n  \"page\": 1,\n  \"per_page\": 6,\n  \"total\": 12,\n  \"total_pages\": 2,\n  \"data\": [\n    {\n      \"id\": 1,\n      \"email\": \"george.bluth@reqres.in\",\n      \"first_name\": \"George\",\n      \"last_name\": \"Bluth\",\n      \"avatar\": \"https:\/\/reqres.in\/img\/faces\/1-image.jpg\"\n    },\n    {\n      \"id\": 2,\n      \"email\": \"janet.weaver@reqres.in\",\n      \"first_name\": \"Janet\",\n      \"last_name\": \"Weaver\",\n      \"avatar\": \"https:\/\/reqres.in\/img\/faces\/2-image.jpg\"\n    },\n    {\n      \"id\": 3,\n      \"email\": \"emma.wong@reqres.in\",\n      \"first_name\": \"Emma\",\n      \"last_name\": \"Wong\",\n      \"avatar\": \"https:\/\/reqres.in\/img\/faces\/3-image.jpg\"\n    },\n    {\n      \"id\": 4,\n      \"email\": \"eve.holt@reqres.in\",\n      \"first_name\": \"Eve\",\n      \"last_name\": \"Holt\",\n      \"avatar\": \"https:\/\/reqres.in\/img\/faces\/4-image.jpg\"\n    },\n    {\n      \"id\": 5,\n      \"email\": \"charles.morris@reqres.in\",\n      \"first_name\": \"Charles\",\n      \"last_name\": \"Morris\",\n      \"avatar\": \"https:\/\/reqres.in\/img\/faces\/5-image.jpg\"\n    },\n    {\n      \"id\": 6,\n      \"email\": \"tracey.ramos@reqres.in\",\n      \"first_name\": \"Tracey\",\n      \"last_name\": \"Ramos\",\n      \"avatar\": \"https:\/\/reqres.in\/img\/faces\/6-image.jpg\"\n    }\n  ],\n  \"support\": {\n    \"url\": \"https:\/\/reqres.in\/#support-heading\",\n    \"text\": \"To keep ReqRes free, contributions towards server costs are appreciated!\"\n  }\n}\n \n"}],"executorName":"main","line":25,"name":"Get Demo 3","description":"","durationMillis":514.681906,"startTime":1677493618894,"failed":false,"refId":"[3:25]","endTime":1677493619410,"exampleIndex":-1}],"callDepth":0,"name":"Get API DEMO","description":"","resultDate":"2023-02-27 03:26:59 pm","durationMillis":1267.477745,"passedCount":3}